Problem set 4
…
population

# A tibble: 104 × 4
   state_name    year population state
   <chr>        <dbl>      <dbl> <chr>
 1 Oklahoma      2020    3962031 OK   
 2 Oklahoma      2021    3986639 OK   
 3 Nebraska      2020    1961455 NE   
 4 Nebraska      2021    1963692 NE   
 5 Hawaii        2020    1451911 HI   
 6 Hawaii        2021    1441553 HI   
 7 South Dakota  2020     887099 SD   
 8 South Dakota  2021     895376 SD   
 9 Tennessee     2020    6920119 TN   
10 Tennessee     2021    6975218 TN   
# ℹ 94 more rows
…
points to a JSON file that lists the states in the 10 Public Health Service (PHS) defined by CDC. We want to add these regions to the population dataset. To facilitate this create a data frame called regions that has two columns state_name, region, region_name. One of the regions has a long name. Change it to something shorter.

library(jsonlite)
library(purrr)
url <- "https://github.com/datasciencelabs/2025/raw/refs/heads/main/data/regions.json"
regions <- fromJSON(url,simplifyDataFrame = FALSE)          #read json file, return lists as result

regions <- map_df(regions, as_tibble)|>                     #turn the list into tibble
            rename(state_name=states)|>                     
            #rename the column names to match population's column name
            filter(state_name %in% c(state.name, "District of Columbia", "Puerto Rico"))
            #without filter, the original data would be 59x3
regions

# A tibble: 52 × 3
   region region_name                                          state_name   
    <int> <chr>                                                <chr>        
 1      1 New England                                          Connecticut  
 2      1 New England                                          Maine        
 3      1 New England                                          Massachusetts
 4      1 New England                                          New Hampshire
 5      1 New England                                          Rhode Island 
 6      1 New England                                          Vermont      
 7      2 New York and New Jersey, Puerto Rico, Virgin Islands New Jersey   
 8      2 New York and New Jersey, Puerto Rico, Virgin Islands New York     
 9      2 New York and New Jersey, Puerto Rico, Virgin Islands Puerto Rico  
10      3 Mid-Atlantic                                         Delaware     
# ℹ 42 more rows

# regions <- use jsonlit JSON parser 
# regions <- convert list to data frame. You can use map_df in purrr package 

Add a region and region name columns to the population data frame.

population <- left_join(population, regions, by = "state_name") 
population

# A tibble: 104 × 6
   state_name    year population state region region_name    
   <chr>        <dbl>      <dbl> <chr>  <int> <chr>          
 1 Oklahoma      2020    3962031 OK         6 South Central  
 2 Oklahoma      2021    3986639 OK         6 South Central  
 3 Nebraska      2020    1961455 NE         7 Central Plains 
 4 Nebraska      2021    1963692 NE         7 Central Plains 
 5 Hawaii        2020    1451911 HI         9 Pacific        
 6 Hawaii        2021    1441553 HI         9 Pacific        
 7 South Dakota  2020     887099 SD         8 Mountain States
 8 South Dakota  2021     895376 SD         8 Mountain States
 9 Tennessee     2020    6920119 TN         4 Southeast      
10 Tennessee     2021    6975218 TN         4 Southeast      
# ℹ 94 more rows
…
